{
    "abi": [],
    "bytecode": "6080604052348015600f57600080fd5b50603580601d6000396000f3006080604052600080fd00a165627a7a72305820c10056b5d3cca8f4fdc15b715d4dcd729001e72b10df828eb3c4c40db31f269e0029",
    "functionHashes": {},
    "gasEstimates": {
        "creation": {
            "codeDepositCost": "10600",
            "executionCost": "66",
            "totalCost": "10666"
        }
    }
}